{
    "bars": [
        280.0,
        502.92888997608145,
        667.4227271211759,
        938.0229473930366,
        1202.5666899457685,
        1460.038863896621,
        1764.7113126898403,
        2069.236692120153,
        2349.235704136926,
        2601.375380497732,
        2864.6328218799167,
        3127.778820194764,
        3382.893600291896,
        3645.3045378870247,
        3935.5186626967657,
        4191.416687974,
        4446.66750373105,
        4691.11520475301,
        4962.9617881407,
        5204.650062765625,
        5523.8562260619865,
        5840.333398708212,
        6161.974950132428,
        6489.973687901506,
        6719.967966549043,
        7040.480617125247,
        7356.959587444879,
        7683.332607014348,
        7943.752032867808,
        8207.82532380061,
        8471.898614733409,
        8695.287062221994,
        8799.486837173059,
        8960.707810645587,
        9233.543311189193,
        9492.274059069177,
        9751.995533955023,
        10009.112560917352,
        10267.785461982801,
        10503.09075813417,
        10675.82021780586,
        10950.49915126971,
        11230.288866860046,
        11547.698669425801,
        11876.137138658298,
        12199.041659641098,
        12517.660496779605,
        12835.3010571188,
        13162.970074840108,
        13319.786443615905,
        13598.345233135387,
        13914.447476014231,
        14148.079651487215,
        14464.100218349544,
        14770.685352074279,
        15088.760865664233,
        15330.597405672906,
        15663.008775535922,
        15983.575591039267,
        16310.506821089271,
        16575.088615392393,
        16838.890108108222,
        17102.69160082397,
        17326.080048312557,
        17429.179444195743,
        17574.159872114837,
        17719.06903834665,
        17866.052871897416,
        18125.774346783262,
        18382.89137374566,
        18641.564274811117,
        18876.869570962408,
        19041.36340810754,
        19311.963628379377,
        19576.507370932115,
        19833.979544882954,
        20138.65199367618,
        20443.17737310647,
        20773.74307869467,
        21093.657196981203,
        21418.096237533486,
        21740.229215354717,
        22053.178462364922,
        22366.443131858297,
        22684.556757646504,
        23012.358612397493,
        23242.96774916636,
        23561.22368567428,
        23879.245875715602,
        24195.24602357382,
        24454.66684766598,
        24715.149140555706,
        24975.63143344551,
        25195.945299503346,
        25298.72553433699,
        25457.17188289102,
        25723.21023079269,
        25978.322242099548,
        26238.419365822076,
        26513.619903330215,
        26728.26956956202,
        26853.787933343378
    ],
    "onset-x": [
        {
            "onset": 0.0,
            "x": 281.7381887366819
        },
        {
            "onset": 0.5,
            "x": 309.9259893455099
        },
        {
            "onset": 1.0,
            "x": 338.20740487062403
        },
        {
            "onset": 1.5,
            "x": 366.48882039573823
        },
        {
            "onset": 2.0,
            "x": 394.7702359208524
        },
        {
            "onset": 2.5,
            "x": 423.0516514459665
        },
        {
            "onset": 3.0,
            "x": 451.3330669710807
        },
        {
            "onset": 3.5,
            "x": 479.61448249619485
        },
        {
            "onset": 4.0,
            "x": 518.8513014423422
        },
        {
            "onset": 4.5,
            "x": 545.4487240704498
        },
        {
            "onset": 5.0,
            "x": 574.0109843444224
        },
        {
            "onset": 7.0,
            "x": 618.9354972820174
        },
        {
            "onset": 7.25,
            "x": 639.9870802348335
        },
        {
            "onset": 8.0,
            "x": 681.5989421679254
        },
        {
            "onset": 8.25,
            "x": 700.5607077691432
        },
        {
            "onset": 8.5,
            "x": 719.709703202933
        },
        {
            "onset": 8.75,
            "x": 738.858698636723
        },
        {
            "onset": 9.0,
            "x": 758.0076940705129
        },
        {
            "onset": 9.25,
            "x": 777.1566895043029
        },
        {
            "onset": 9.5,
            "x": 796.3056849380926
        },
        {
            "onset": 9.75,
            "x": 815.4546803718821
        },
        {
            "onset": 10.0,
            "x": 834.603675805672
        },
        {
            "onset": 10.5,
            "x": 862.8850913307862
        },
        {
            "onset": 11.0,
            "x": 891.1665068559004
        },
        {
            "onset": 11.75,
            "x": 922.8874581562458
        },
        {
            "onset": 12.0,
            "x": 951.8427967081051
        },
        {
            "onset": 12.5,
            "x": 980.1242122332193
        },
        {
            "onset": 12.75,
            "x": 999.2732076670092
        },
        {
            "onset": 13.0,
            "x": 1017.6201280120118
        },
        {
            "onset": 13.5,
            "x": 1044.297393359551
        },
        {
            "onset": 14.0,
            "x": 1072.8119671799468
        },
        {
            "onset": 14.5,
            "x": 1100.8602244097792
        },
        {
            "onset": 14.75,
            "x": 1120.0092198435693
        },
        {
            "onset": 15.0,
            "x": 1139.1582152773594
        },
        {
            "onset": 15.5,
            "x": 1167.4396308024734
        },
        {
            "onset": 15.75,
            "x": 1186.5886262362633
        },
        {
            "onset": 16.0,
            "x": 1216.2307208220398
        },
        {
            "onset": 16.5,
            "x": 1246.3211089498932
        },
        {
            "onset": 17.0,
            "x": 1274.6025244750076
        },
        {
            "onset": 17.5,
            "x": 1302.883940000122
        },
        {
            "onset": 18.0,
            "x": 1331.165355525236
        },
        {
            "onset": 18.5,
            "x": 1359.44677105035
        },
        {
            "onset": 19.0,
            "x": 1387.7281865754683
        },
        {
            "onset": 19.25,
            "x": 1408.7797695282802
        },
        {
            "onset": 19.5,
            "x": 1427.928764962074
        },
        {
            "onset": 19.75,
            "x": 1447.0777603958602
        },
        {
            "onset": 20.0,
            "x": 1474.2772824658753
        },
        {
            "onset": 20.5,
            "x": 1502.5586979909895
        },
        {
            "onset": 21.0,
            "x": 1530.9805358905385
        },
        {
            "onset": 21.25,
            "x": 1555.696871506971
        },
        {
            "onset": 21.5,
            "x": 1574.845866940769
        },
        {
            "onset": 21.75,
            "x": 1593.9948623745513
        },
        {
            "onset": 22.0,
            "x": 1613.3118948816211
        },
        {
            "onset": 22.25,
            "x": 1634.9536490673136
        },
        {
            "onset": 22.5,
            "x": 1654.102644501104
        },
        {
            "onset": 22.75,
            "x": 1673.2516399348933
        },
        {
            "onset": 23.0,
            "x": 1692.4006353686837
        },
        {
            "onset": 23.25,
            "x": 1713.4522183214992
        },
        {
            "onset": 23.5,
            "x": 1732.6012137552893
        },
        {
            "onset": 23.75,
            "x": 1751.7502091890792
        },
        {
            "onset": 24.0,
            "x": 1778.8302765950382
        },
        {
            "onset": 24.5,
            "x": 1807.1116921201526
        },
        {
            "onset": 25.0,
            "x": 1835.5335300196955
        },
        {
            "onset": 25.25,
            "x": 1860.2498656361342
        },
        {
            "onset": 25.5,
            "x": 1879.3988610699241
        },
        {
            "onset": 25.75,
            "x": 1898.547856503714
        },
        {
            "onset": 26.0,
            "x": 1917.8372743119332
        },
        {
            "onset": 26.25,
            "x": 1939.4790284976254
        },
        {
            "onset": 26.5,
            "x": 1958.6280239314158
        },
        {
            "onset": 26.75,
            "x": 1977.7770193652052
        },
        {
            "onset": 27.0,
            "x": 1996.9260147989955
        },
        {
            "onset": 27.25,
            "x": 2017.9775977518113
        },
        {
            "onset": 27.5,
            "x": 2037.1265931856012
        },
        {
            "onset": 27.75,
            "x": 2056.275588619392
        },
        {
            "onset": 28.0,
            "x": 2083.35565602535
        },
        {
            "onset": 28.25,
            "x": 2102.5046514591404
        },
        {
            "onset": 28.5,
            "x": 2127.361409450008
        },
        {
            "onset": 28.75,
            "x": 2146.510404883798
        },
        {
            "onset": 29.0,
            "x": 2167.749217669186
        },
        {
            "onset": 29.25,
            "x": 2191.048958917283
        },
        {
            "onset": 29.5,
            "x": 2210.197954351073
        },
        {
            "onset": 29.75,
            "x": 2229.3469497848628
        },
        {
            "onset": 30.0,
            "x": 2248.495945218653
        },
        {
            "onset": 30.75,
            "x": 2269.431847048425
        },
        {
            "onset": 30.875,
            "x": 2283.253597428942
        },
        {
            "onset": 31.0,
            "x": 2297.07534780946
        },
        {
            "onset": 31.5,
            "x": 2325.356763334574
        },
        {
            "onset": 32.0,
            "x": 2363.055553451994
        },
        {
            "onset": 32.5,
            "x": 2391.336968977108
        },
        {
            "onset": 32.75,
            "x": 2410.485964410898
        },
        {
            "onset": 33.0,
            "x": 2428.832884755901
        },
        {
            "onset": 33.5,
            "x": 2455.51015010344
        },
        {
            "onset": 34.0,
            "x": 2483.0948723256624
        },
        {
            "onset": 34.5,
            "x": 2512.0729811536685
        },
        {
            "onset": 34.75,
            "x": 2531.221976587458
        },
        {
            "onset": 35.0,
            "x": 2550.2357556698707
        },
        {
            "onset": 35.5,
            "x": 2576.4467044268417
        },
        {
            "onset": 36.0,
            "x": 2615.4943444029227
        },
        {
            "onset": 36.25,
            "x": 2634.643339836712
        },
        {
            "onset": 36.5,
            "x": 2653.792335270506
        },
        {
            "onset": 36.75,
            "x": 2672.9413307043
        },
        {
            "onset": 37.0,
            "x": 2691.2882510493027
        },
        {
            "onset": 37.5,
            "x": 2719.1173289285466
        },
        {
            "onset": 38.0,
            "x": 2747.049007010739
        },
        {
            "onset": 38.5,
            "x": 2775.330422535853
        },
        {
            "onset": 38.75,
            "x": 2794.479417969643
        },
        {
            "onset": 39.0,
            "x": 2813.493197052055
        },
        {
            "onset": 39.5,
            "x": 2839.70414580903
        },
        {
            "onset": 40.0,
            "x": 2878.751785785114
        },
        {
            "onset": 40.25,
            "x": 2897.9007812189043
        },
        {
            "onset": 40.5,
            "x": 2917.049776652694
        },
        {
            "onset": 40.75,
            "x": 2936.198772086484
        },
        {
            "onset": 41.0,
            "x": 2954.5456924314863
        },
        {
            "onset": 41.5,
            "x": 2982.3747703107306
        },
        {
            "onset": 42.0,
            "x": 3010.3064483929224
        },
        {
            "onset": 42.5,
            "x": 3038.587863918037
        },
        {
            "onset": 42.75,
            "x": 3057.7368593518304
        },
        {
            "onset": 43.0,
            "x": 3076.8182466099315
        },
        {
            "onset": 43.5,
            "x": 3104.0569645196197
        },
        {
            "onset": 44.0,
            "x": 3141.8722770332115
        },
        {
            "onset": 44.5,
            "x": 3170.7317194482266
        },
        {
            "onset": 45.0,
            "x": 3199.013134973341
        },
        {
            "onset": 45.5,
            "x": 3227.294550498455
        },
        {
            "onset": 46.0,
            "x": 3255.5759660235694
        },
        {
            "onset": 46.5,
            "x": 3283.8573815486834
        },
        {
            "onset": 47.0,
            "x": 3312.138797073798
        },
        {
            "onset": 47.25,
            "x": 3331.2877925075877
        },
        {
            "onset": 47.5,
            "x": 3350.436787941377
        },
        {
            "onset": 47.75,
            "x": 3369.5857833751675
        },
        {
            "onset": 48.0,
            "x": 3398.3974425039664
        },
        {
            "onset": 48.5,
            "x": 3424.9948651320738
        },
        {
            "onset": 49.0,
            "x": 3453.2762806571877
        },
        {
            "onset": 50.0,
            "x": 3490.6901162736303
        },
        {
            "onset": 50.25,
            "x": 3511.741699226446
        },
        {
            "onset": 50.5,
            "x": 3530.890694660236
        },
        {
            "onset": 50.75,
            "x": 3551.9422776130523
        },
        {
            "onset": 51.0,
            "x": 3571.0912730468417
        },
        {
            "onset": 51.25,
            "x": 3592.1428559996575
        },
        {
            "onset": 51.5,
            "x": 3611.291851433448
        },
        {
            "onset": 51.75,
            "x": 3632.3434343862637
        },
        {
            "onset": 52.0,
            "x": 3665.969606380175
        },
        {
            "onset": 52.25,
            "x": 3686.9275744167053
        },
        {
            "onset": 52.5,
            "x": 3706.0765698504947
        },
        {
            "onset": 52.75,
            "x": 3727.128152803311
        },
        {
            "onset": 53.0,
            "x": 3746.2771482371
        },
        {
            "onset": 53.25,
            "x": 3767.3287311899167
        },
        {
            "onset": 53.5,
            "x": 3786.4777266237056
        },
        {
            "onset": 53.75,
            "x": 3807.5293095765223
        },
        {
            "onset": 54.0,
            "x": 3826.678305010312
        },
        {
            "onset": 54.5,
            "x": 3853.0571330164003
        },
        {
            "onset": 55.0,
            "x": 3881.338548541514
        },
        {
            "onset": 55.5,
            "x": 3911.522551585654
        },
        {
            "onset": 56.0,
            "x": 3949.773389159041
        },
        {
            "onset": 56.5,
            "x": 3978.054804684155
        },
        {
            "onset": 56.75,
            "x": 3997.203800117946
        },
        {
            "onset": 57.0,
            "x": 4015.550720462948
        },
        {
            "onset": 57.5,
            "x": 4043.3797983421996
        },
        {
            "onset": 58.0,
            "x": 4071.3114764243915
        },
        {
            "onset": 58.5,
            "x": 4099.592891949505
        },
        {
            "onset": 58.75,
            "x": 4118.741887383294
        },
        {
            "onset": 59.0,
            "x": 4140.524063943418
        },
        {
            "onset": 59.5,
            "x": 4167.7627818531055
        },
        {
            "onset": 60.0,
            "x": 4205.374382255365
        },
        {
            "onset": 60.5,
            "x": 4234.233824670381
        },
        {
            "onset": 61.0,
            "x": 4262.515240195495
        },
        {
            "onset": 61.5,
            "x": 4290.796655720609
        },
        {
            "onset": 62.0,
            "x": 4319.078071245724
        },
        {
            "onset": 62.5,
            "x": 4347.359486770837
        },
        {
            "onset": 63.0,
            "x": 4375.640902295954
        },
        {
            "onset": 63.25,
            "x": 4394.789897729742
        },
        {
            "onset": 63.5,
            "x": 4413.938893163531
        },
        {
            "onset": 63.75,
            "x": 4433.087888597322
        },
        {
            "onset": 64.0,
            "x": 4462.372476623705
        },
        {
            "onset": 64.5,
            "x": 4488.969899251812
        },
        {
            "onset": 65.0,
            "x": 4517.532159525784
        },
        {
            "onset": 65.5,
            "x": 4545.532730302039
        },
        {
            "onset": 66.0,
            "x": 4573.814145827154
        },
        {
            "onset": 66.5,
            "x": 4602.095561352268
        },
        {
            "onset": 67.0,
            "x": 4630.376976877382
        },
        {
            "onset": 67.5,
            "x": 4658.658392402496
        },
        {
            "onset": 67.75,
            "x": 4677.807387836287
        },
        {
            "onset": 68.0,
            "x": 4706.820177645668
        },
        {
            "onset": 68.5,
            "x": 4733.417600273775
        },
        {
            "onset": 69.0,
            "x": 4761.6990157988885
        },
        {
            "onset": 69.5,
            "x": 4789.980431324004
        },
        {
            "onset": 70.0,
            "x": 4818.261846849117
        },
        {
            "onset": 70.25,
            "x": 4839.313429801934
        },
        {
            "onset": 70.5,
            "x": 4864.170187792801
        },
        {
            "onset": 70.75,
            "x": 4883.31918322659
        },
        {
            "onset": 71.0,
            "x": 4902.468178660381
        },
        {
            "onset": 71.5,
            "x": 4930.749594185495
        },
        {
            "onset": 71.75,
            "x": 4949.898589619285
        },
        {
            "onset": 72.0,
            "x": 4983.533241717565
        },
        {
            "onset": 72.5,
            "x": 5011.814657242679
        },
        {
            "onset": 73.0,
            "x": 5041.328211276165
        },
        {
            "onset": 73.5,
            "x": 5069.32878205242
        },
        {
            "onset": 74.0,
            "x": 5097.610197577534
        },
        {
            "onset": 74.5,
            "x": 5125.891613102649
        },
        {
            "onset": 75.0,
            "x": 5154.173028627763
        },
        {
            "onset": 75.5,
            "x": 5182.454444152878
        },
        {
            "onset": 76.0,
            "x": 5222.94631339982
        },
        {
            "onset": 76.25,
            "x": 5239.350724866082
        },
        {
            "onset": 76.5,
            "x": 5258.49972029987
        },
        {
            "onset": 76.75,
            "x": 5277.648715733661
        },
        {
            "onset": 77.0,
            "x": 5296.196154850855
        },
        {
            "onset": 77.25,
            "x": 5315.946706601237
        },
        {
            "onset": 77.5,
            "x": 5336.998289554054
        },
        {
            "onset": 77.75,
            "x": 5354.244697468813
        },
        {
            "onset": 78.0,
            "x": 5375.2962804216295
        },
        {
            "onset": 78.25,
            "x": 5392.542688336393
        },
        {
            "onset": 78.5,
            "x": 5411.691683770183
        },
        {
            "onset": 78.75,
            "x": 5430.840679203973
        },
        {
            "onset": 79.0,
            "x": 5451.892262156789
        },
        {
            "onset": 79.25,
            "x": 5469.138670071552
        },
        {
            "onset": 79.5,
            "x": 5488.287665505343
        },
        {
            "onset": 79.75,
            "x": 5507.436660939132
        },
        {
            "onset": 80.0,
            "x": 5538.735510399158
        },
        {
            "onset": 80.25,
            "x": 5555.139921865418
        },
        {
            "onset": 80.5,
            "x": 5574.288917299209
        },
        {
            "onset": 80.75,
            "x": 5593.4379127329985
        },
        {
            "onset": 81.0,
            "x": 5612.586908166789
        },
        {
            "onset": 81.25,
            "x": 5631.735903600579
        },
        {
            "onset": 81.5,
            "x": 5653.475462200274
        },
        {
            "onset": 81.75,
            "x": 5670.721870115039
        },
        {
            "onset": 82.0,
            "x": 5691.7734530678545
        },
        {
            "onset": 82.25,
            "x": 5709.019860982618
        },
        {
            "onset": 82.5,
            "x": 5728.168856416409
        },
        {
            "onset": 82.75,
            "x": 5747.317851850199
        },
        {
            "onset": 83.0,
            "x": 5768.369434803014
        },
        {
            "onset": 83.25,
            "x": 5785.615842717778
        },
        {
            "onset": 83.5,
            "x": 5804.764838151567
        },
        {
            "onset": 83.75,
            "x": 5823.913833585358
        },
        {
            "onset": 84.0,
            "x": 5859.164218089238
        },
        {
            "onset": 84.25,
            "x": 5876.781473289643
        },
        {
            "onset": 84.5,
            "x": 5895.930468723433
        },
        {
            "onset": 84.75,
            "x": 5915.079464157222
        },
        {
            "onset": 85.0,
            "x": 5934.228459591013
        },
        {
            "onset": 85.25,
            "x": 5953.377455024802
        },
        {
            "onset": 85.5,
            "x": 5975.117013624497
        },
        {
            "onset": 85.75,
            "x": 5992.363421539262
        },
        {
            "onset": 86.0,
            "x": 6013.415004492078
        },
        {
            "onset": 86.25,
            "x": 6030.661412406842
        },
        {
            "onset": 86.5,
            "x": 6049.810407840631
        },
        {
            "onset": 86.75,
            "x": 6068.959403274423
        },
        {
            "onset": 87.0,
            "x": 6090.0109862272375
        },
        {
            "onset": 87.25,
            "x": 6107.257394142002
        },
        {
            "onset": 87.5,
            "x": 6126.406389575784
        },
        {
            "onset": 87.75,
            "x": 6145.555385009578
        },
        {
            "onset": 88.0,
            "x": 6183.702606144605
        },
        {
            "onset": 88.25,
            "x": 6198.4230247138585
        },
        {
            "onset": 88.5,
            "x": 6217.572020147649
        },
        {
            "onset": 88.75,
            "x": 6236.721015581439
        },
        {
            "onset": 89.0,
            "x": 6255.870011015229
        },
        {
            "onset": 89.25,
            "x": 6279.356982095898
        },
        {
            "onset": 89.5,
            "x": 6298.505977529689
        },
        {
            "onset": 89.75,
            "x": 6317.654972963478
        },
        {
            "onset": 90.0,
            "x": 6336.803968397268
        },
        {
            "onset": 90.25,
            "x": 6354.050376312031
        },
        {
            "onset": 90.5,
            "x": 6373.199371745823
        },
        {
            "onset": 90.75,
            "x": 6392.348367179612
        },
        {
            "onset": 91.0,
            "x": 6411.497362613402
        },
        {
            "onset": 91.25,
            "x": 6434.984333694071
        },
        {
            "onset": 91.5,
            "x": 6454.133329127862
        },
        {
            "onset": 91.75,
            "x": 6473.282324561652
        },
        {
            "onset": 92.0,
            "x": 6509.175354568174
        },
        {
            "onset": 92.5,
            "x": 6537.4567700932885
        },
        {
            "onset": 92.75,
            "x": 6556.605765527078
        },
        {
            "onset": 93.0,
            "x": 6575.754760960867
        },
        {
            "onset": 93.25,
            "x": 6594.903756394659
        },
        {
            "onset": 93.5,
            "x": 6614.052751828448
        },
        {
            "onset": 93.75,
            "x": 6633.201747262239
        },
        {
            "onset": 94.0,
            "x": 6652.491165070457
        },
        {
            "onset": 95.0,
            "x": 6687.046596142428
        },
        {
            "onset": 96.0,
            "x": 6737.422220734734
        },
        {
            "onset": 96.25,
            "x": 6759.161779334429
        },
        {
            "onset": 96.5,
            "x": 6776.408187249195
        },
        {
            "onset": 96.75,
            "x": 6797.459770202006
        },
        {
            "onset": 97.0,
            "x": 6816.608765635795
        },
        {
            "onset": 97.25,
            "x": 6837.660348588612
        },
        {
            "onset": 97.5,
            "x": 6854.906756503372
        },
        {
            "onset": 97.75,
            "x": 6875.958339456188
        },
        {
            "onset": 98.0,
            "x": 6893.204747370953
        },
        {
            "onset": 98.25,
            "x": 6912.353742804742
        },
        {
            "onset": 98.5,
            "x": 6929.600150719505
        },
        {
            "onset": 98.75,
            "x": 6950.651733672323
        },
        {
            "onset": 99.0,
            "x": 6969.800729106111
        },
        {
            "onset": 99.25,
            "x": 6988.949724539902
        },
        {
            "onset": 99.5,
            "x": 7008.09871997369
        },
        {
            "onset": 99.75,
            "x": 7027.247715407481
        },
        {
            "onset": 100.0,
            "x": 7054.083027866714
        },
        {
            "onset": 100.25,
            "x": 7075.1346108195285
        },
        {
            "onset": 100.5,
            "x": 7092.381018734292
        },
        {
            "onset": 100.75,
            "x": 7113.432601687107
        },
        {
            "onset": 101.0,
            "x": 7130.2145473999435
        },
        {
            "onset": 101.25,
            "x": 7151.730592554688
        },
        {
            "onset": 101.5,
            "x": 7168.977000469452
        },
        {
            "onset": 101.75,
            "x": 7190.028583422268
        },
        {
            "onset": 102.0,
            "x": 7207.274991337033
        },
        {
            "onset": 102.25,
            "x": 7228.326574289848
        },
        {
            "onset": 102.5,
            "x": 7245.572982204613
        },
        {
            "onset": 102.75,
            "x": 7266.624565157427
        },
        {
            "onset": 103.0,
            "x": 7283.174279769301
        },
        {
            "onset": 103.25,
            "x": 7304.922556025008
        },
        {
            "onset": 103.5,
            "x": 7322.168963939772
        },
        {
            "onset": 103.75,
            "x": 7342.269253133074
        },
        {
            "onset": 104.0,
            "x": 7370.980567440529
        },
        {
            "onset": 104.25,
            "x": 7392.0321503933465
        },
        {
            "onset": 104.5,
            "x": 7409.2785583081095
        },
        {
            "onset": 104.75,
            "x": 7430.330141260924
        },
        {
            "onset": 105.0,
            "x": 7447.112086973759
        },
        {
            "onset": 105.25,
            "x": 7468.628132128501
        },
        {
            "onset": 105.5,
            "x": 7485.8745400432645
        },
        {
            "onset": 105.75,
            "x": 7506.926122996081
        },
        {
            "onset": 106.0,
            "x": 7524.172530910846
        },
        {
            "onset": 106.25,
            "x": 7545.224113863661
        },
        {
            "onset": 106.5,
            "x": 7562.470521778424
        },
        {
            "onset": 106.75,
            "x": 7583.522104731242
        },
        {
            "onset": 107.0,
            "x": 7600.1669563294145
        },
        {
            "onset": 107.25,
            "x": 7621.820095598821
        },
        {
            "onset": 107.5,
            "x": 7646.676853589688
        },
        {
            "onset": 107.75,
            "x": 7667.728436542506
        },
        {
            "onset": 108.0,
            "x": 7697.680948392907
        },
        {
            "onset": 108.5,
            "x": 7724.917455242223
        },
        {
            "onset": 109.0,
            "x": 7753.198870767337
        },
        {
            "onset": 109.5,
            "x": 7781.480286292451
        },
        {
            "onset": 109.75,
            "x": 7800.629281726242
        },
        {
            "onset": 110.0,
            "x": 7822.505073202665
        },
        {
            "onset": 110.5,
            "x": 7852.595461330518
        },
        {
            "onset": 111.0,
            "x": 7880.876876855633
        },
        {
            "onset": 111.5,
            "x": 7909.158292380746
        },
        {
            "onset": 111.75,
            "x": 7928.307287814536
        },
        {
            "onset": 112.0,
            "x": 7964.5107162772465
        },
        {
            "onset": 112.5,
            "x": 7992.604901969788
        },
        {
            "onset": 113.0,
            "x": 8020.886317494902
        },
        {
            "onset": 113.25,
            "x": 8040.035312928691
        },
        {
            "onset": 113.5,
            "x": 8059.18430836248
        },
        {
            "onset": 113.75,
            "x": 8078.333303796271
        },
        {
            "onset": 114.0,
            "x": 8099.572116581661
        },
        {
            "onset": 115.0,
            "x": 8136.798722365527
        },
        {
            "onset": 115.25,
            "x": 8155.947717799316
        },
        {
            "onset": 115.5,
            "x": 8175.096713233105
        },
        {
            "onset": 115.75,
            "x": 8194.245708666895
        },
        {
            "onset": 116.0,
            "x": 8228.584007210047
        },
        {
            "onset": 116.5,
            "x": 8256.678192902587
        },
        {
            "onset": 117.0,
            "x": 8284.959608427704
        },
        {
            "onset": 117.25,
            "x": 8304.108603861492
        },
        {
            "onset": 117.5,
            "x": 8323.25759929528
        },
        {
            "onset": 117.75,
            "x": 8342.406594729073
        },
        {
            "onset": 118.0,
            "x": 8363.645407514461
        },
        {
            "onset": 119.0,
            "x": 8400.872013298325
        },
        {
            "onset": 119.25,
            "x": 8420.021008732114
        },
        {
            "onset": 119.5,
            "x": 8439.170004165906
        },
        {
            "onset": 119.75,
            "x": 8458.318999599698
        },
        {
            "onset": 120.0,
            "x": 8492.657298142847
        },
        {
            "onset": 120.5,
            "x": 8520.751483835389
        },
        {
            "onset": 121.0,
            "x": 8549.032899360502
        },
        {
            "onset": 121.25,
            "x": 8568.181894794294
        },
        {
            "onset": 121.5,
            "x": 8587.330890228082
        },
        {
            "onset": 121.75,
            "x": 8606.479885661873
        },
        {
            "onset": 122.0,
            "x": 8627.997785205253
        },
        {
            "onset": 123.0,
            "x": 8663.551917625344
        },
        {
            "onset": 124.0,
            "x": 8709.036417879022
        },
        {
            "onset": 126.0,
            "x": 8756.44880752892
        },
        {
            "onset": 128.0,
            "x": 8813.713805789448
        },
        {
            "onset": 129.0,
            "x": 8849.306736499011
        },
        {
            "onset": 130.0,
            "x": 8888.623159634475
        },
        {
            "onset": 131.0,
            "x": 8926.036995250914
        },
        {
            "onset": 132.0,
            "x": 8974.72879064125
        },
        {
            "onset": 133.0,
            "x": 9011.938777594904
        },
        {
            "onset": 133.25,
            "x": 9031.087773028692
        },
        {
            "onset": 133.5,
            "x": 9050.23676846248
        },
        {
            "onset": 133.75,
            "x": 9067.483176377247
        },
        {
            "onset": 134.0,
            "x": 9085.953359025647
        },
        {
            "onset": 134.25,
            "x": 9107.692917625343
        },
        {
            "onset": 134.5,
            "x": 9126.841913059132
        },
        {
            "onset": 134.75,
            "x": 9144.088320973897
        },
        {
            "onset": 135.0,
            "x": 9160.405804484804
        },
        {
            "onset": 135.25,
            "x": 9180.48372432245
        },
        {
            "onset": 135.5,
            "x": 9199.632719756242
        },
        {
            "onset": 135.75,
            "x": 9216.879127671005
        },
        {
            "onset": 136.0,
            "x": 9246.855831012352
        },
        {
            "onset": 136.5,
            "x": 9273.43948144361
        },
        {
            "onset": 137.0,
            "x": 9301.720896968722
        },
        {
            "onset": 137.5,
            "x": 9330.002312493834
        },
        {
            "onset": 137.75,
            "x": 9349.151307927626
        },
        {
            "onset": 138.0,
            "x": 9371.027099404035
        },
        {
            "onset": 138.5,
            "x": 9401.117487531888
        },
        {
            "onset": 139.0,
            "x": 9429.398903057003
        },
        {
            "onset": 139.5,
            "x": 9457.680318582117
        },
        {
            "onset": 139.75,
            "x": 9476.829314015908
        },
        {
            "onset": 140.0,
            "x": 9505.938089945434
        },
        {
            "onset": 140.5,
            "x": 9536.028478073287
        },
        {
            "onset": 141.0,
            "x": 9564.309893598404
        },
        {
            "onset": 141.5,
            "x": 9592.591309123516
        },
        {
            "onset": 141.75,
            "x": 9611.740304557308
        },
        {
            "onset": 142.0,
            "x": 9632.791887510122
        },
        {
            "onset": 142.5,
            "x": 9662.975890554262
        },
        {
            "onset": 143.0,
            "x": 9691.257306079377
        },
        {
            "onset": 143.5,
            "x": 9719.538721604491
        },
        {
            "onset": 143.75,
            "x": 9738.68771703828
        },
        {
            "onset": 144.0,
            "x": 9765.908998186378
        },
        {
            "onset": 144.5,
            "x": 9793.145505035694
        },
        {
            "onset": 145.0,
            "x": 9821.426920560807
        },
        {
            "onset": 145.5,
            "x": 9849.708336085921
        },
        {
            "onset": 145.75,
            "x": 9868.857331519712
        },
        {
            "onset": 146.0,
            "x": 9889.908914472528
        },
        {
            "onset": 146.5,
            "x": 9920.092917516668
        },
        {
            "onset": 147.0,
            "x": 9948.374333041784
        },
        {
            "onset": 147.5,
            "x": 9976.655748566895
        },
        {
            "onset": 147.75,
            "x": 9995.804744000687
        },
        {
            "onset": 148.0,
            "x": 10023.774406680925
        },
        {
            "onset": 148.5,
            "x": 10050.262531998022
        },
        {
            "onset": 149.0,
            "x": 10078.543947523136
        },
        {
            "onset": 149.5,
            "x": 10106.825363048252
        },
        {
            "onset": 149.75,
            "x": 10125.974358482039
        },
        {
            "onset": 150.0,
            "x": 10147.025941434855
        },
        {
            "onset": 150.5,
            "x": 10177.209944478995
        },
        {
            "onset": 151.0,
            "x": 10205.491360004109
        },
        {
            "onset": 151.5,
            "x": 10233.772775529224
        },
        {
            "onset": 151.75,
            "x": 10252.921770963014
        },
        {
            "onset": 152.0,
            "x": 10281.900056894749
        },
        {
            "onset": 152.5,
            "x": 10310.087857503579
        },
        {
            "onset": 153.0,
            "x": 10338.369273028691
        },
        {
            "onset": 153.5,
            "x": 10366.650688553806
        },
        {
            "onset": 154.0,
            "x": 10394.93210407892
        },
        {
            "onset": 154.5,
            "x": 10423.213519604033
        },
        {
            "onset": 155.0,
            "x": 10451.494935129149
        },
        {
            "onset": 155.5,
            "x": 10479.776350654263
        },
        {
            "onset": 156.0,
            "x": 10525.346204608042
        },
        {
            "onset": 156.5,
            "x": 10551.943627236149
        },
        {
            "onset": 157.0,
            "x": 10580.50588751012
        },
        {
            "onset": 159.0,
            "x": 10627.332987966744
        },
        {
            "onset": 159.25,
            "x": 10648.384570919561
        },
        {
            "onset": 160.0,
            "x": 10689.908972970015
        },
        {
            "onset": 160.25,
            "x": 10708.870738571235
        },
        {
            "onset": 160.5,
            "x": 10728.019734005024
        },
        {
            "onset": 160.75,
            "x": 10747.168729438812
        },
        {
            "onset": 161.0,
            "x": 10766.317724872602
        },
        {
            "onset": 161.25,
            "x": 10791.174482863471
        },
        {
            "onset": 161.5,
            "x": 10814.66145394414
        },
        {
            "onset": 161.75,
            "x": 10833.81044937793
        },
        {
            "onset": 162.0,
            "x": 10852.959444811722
        },
        {
            "onset": 162.5,
            "x": 10881.240860336835
        },
        {
            "onset": 163.0,
            "x": 10899.505700519483
        },
        {
            "onset": 163.5,
            "x": 10917.770540702131
        },
        {
            "onset": 163.75,
            "x": 10936.919536135922
        },
        {
            "onset": 164.0,
            "x": 10964.520131265295
        },
        {
            "onset": 164.5,
            "x": 10992.801546790412
        },
        {
            "onset": 164.75,
            "x": 11011.950542224202
        },
        {
            "onset": 165.0,
            "x": 11030.93165840888
        },
        {
            "onset": 165.5,
            "x": 11056.974727916744
        },
        {
            "onset": 166.0,
            "x": 11085.60588088478
        },
        {
            "onset": 166.25,
            "x": 11104.405138875647
        },
        {
            "onset": 166.5,
            "x": 11123.554134309437
        },
        {
            "onset": 166.75,
            "x": 11142.703129743226
        },
        {
            "onset": 167.0,
            "x": 11167.559887734133
        },
        {
            "onset": 167.5,
            "x": 11194.890009499695
        },
        {
            "onset": 167.75,
            "x": 11214.039004933524
        },
        {
            "onset": 168.0,
            "x": 11244.256097489906
        },
        {
            "onset": 168.25,
            "x": 11262.574656596957
        },
        {
            "onset": 168.5,
            "x": 11287.431414587825
        },
        {
            "onset": 168.75,
            "x": 11306.580410021614
        },
        {
            "onset": 169.0,
            "x": 11324.526292822222
        },
        {
            "onset": 169.25,
            "x": 11344.878400889193
        },
        {
            "onset": 169.5,
            "x": 11362.124808803957
        },
        {
            "onset": 169.75,
            "x": 11383.176391756775
        },
        {
            "onset": 170.0,
            "x": 11400.840226286
        },
        {
            "onset": 170.25,
            "x": 11419.70837697093
        },
        {
            "onset": 170.5,
            "x": 11438.857372404718
        },
        {
            "onset": 170.75,
            "x": 11458.006367838509
        },
        {
            "onset": 171.0,
            "x": 11477.290579623668
        },
        {
            "onset": 171.25,
            "x": 11496.439575057459
        },
        {
            "onset": 171.5,
            "x": 11515.58857049125
        },
        {
            "onset": 171.75,
            "x": 11534.73756592504
        },
        {
            "onset": 172.0,
            "x": 11561.911248247261
        },
        {
            "onset": 172.25,
            "x": 11580.082443072224
        },
        {
            "onset": 172.5,
            "x": 11604.93920106309
        },
        {
            "onset": 172.75,
            "x": 11624.088196496918
        },
        {
            "onset": 173.0,
            "x": 11641.33460441172
        },
        {
            "onset": 173.25,
            "x": 11662.386187364535
        },
        {
            "onset": 173.5,
            "x": 11685.568714000723
        },
        {
            "onset": 173.75,
            "x": 11706.620296953577
        },
        {
            "onset": 174.0,
            "x": 11724.19347807991
        },
        {
            "onset": 174.25,
            "x": 11743.015700302132
        },
        {
            "onset": 174.5,
            "x": 11762.16469573592
        },
        {
            "onset": 174.75,
            "x": 11781.313691169711
        },
        {
            "onset": 175.0,
            "x": 11799.069299997718
        },
        {
            "onset": 175.25,
            "x": 11822.244863163623
        },
        {
            "onset": 175.5,
            "x": 11844.027039723744
        },
        {
            "onset": 175.75,
            "x": 11863.176035157536
        },
        {
            "onset": 176.0,
            "x": 11890.104369288081
        },
        {
            "onset": 176.25,
            "x": 11908.422928395132
        },
        {
            "onset": 176.5,
            "x": 11933.279686385997
        },
        {
            "onset": 176.75,
            "x": 11952.428681819789
        },
        {
            "onset": 177.0,
            "x": 11969.675089734592
        },
        {
            "onset": 177.25,
            "x": 11990.726672687368
        },
        {
            "onset": 177.5,
            "x": 12010.834617892884
        },
        {
            "onset": 177.75,
            "x": 12031.886200845702
        },
        {
            "onset": 178.0,
            "x": 12049.759350443457
        },
        {
            "onset": 178.25,
            "x": 12068.418186059895
        },
        {
            "onset": 178.5,
            "x": 12087.567181493685
        },
        {
            "onset": 178.75,
            "x": 12106.716176927475
        },
        {
            "onset": 179.0,
            "x": 12126.000388712633
        },
        {
            "onset": 179.25,
            "x": 12145.149384146423
        },
        {
            "onset": 179.5,
            "x": 12166.931560706545
        },
        {
            "onset": 179.75,
            "x": 12186.080556140334
        },
        {
            "onset": 180.0,
            "x": 12213.373693126636
        },
        {
            "onset": 180.25,
            "x": 12231.544887951599
        },
        {
            "onset": 180.5,
            "x": 12253.327064511719
        },
        {
            "onset": 180.75,
            "x": 12272.476059945511
        },
        {
            "onset": 181.0,
            "x": 12289.722467860274
        },
        {
            "onset": 181.25,
            "x": 12310.77405081309
        },
        {
            "onset": 181.5,
            "x": 12328.020458727855
        },
        {
            "onset": 181.75,
            "x": 12349.072041680669
        },
        {
            "onset": 182.0,
            "x": 12366.645222807001
        },
        {
            "onset": 182.25,
            "x": 12385.467445029224
        },
        {
            "onset": 182.5,
            "x": 12404.616440463014
        },
        {
            "onset": 182.75,
            "x": 12423.765435896805
        },
        {
            "onset": 183.0,
            "x": 12441.52104472481
        },
        {
            "onset": 183.25,
            "x": 12462.063426764384
        },
        {
            "onset": 183.5,
            "x": 12485.550397845054
        },
        {
            "onset": 183.75,
            "x": 12504.699393278843
        },
        {
            "onset": 184.0,
            "x": 12531.807119306239
        },
        {
            "onset": 184.25,
            "x": 12550.629341528462
        },
        {
            "onset": 184.5,
            "x": 12569.778336962254
        },
        {
            "onset": 184.75,
            "x": 12588.927332396044
        },
        {
            "onset": 185.0,
            "x": 12606.853918610428
        },
        {
            "onset": 185.25,
            "x": 12627.905501563244
        },
        {
            "onset": 185.5,
            "x": 12645.151909478005
        },
        {
            "onset": 185.75,
            "x": 12666.203492430823
        },
        {
            "onset": 186.0,
            "x": 12683.940060162939
        },
        {
            "onset": 186.25,
            "x": 12702.598895779376
        },
        {
            "onset": 186.5,
            "x": 12721.747891213166
        },
        {
            "onset": 186.75,
            "x": 12740.896886646955
        },
        {
            "onset": 187.0,
            "x": 12760.181098432193
        },
        {
            "onset": 187.25,
            "x": 12779.330093865981
        },
        {
            "onset": 187.5,
            "x": 12802.817064946612
        },
        {
            "onset": 187.75,
            "x": 12821.966060380404
        },
        {
            "onset": 188.0,
            "x": 12854.44897441966
        },
        {
            "onset": 188.25,
            "x": 12874.160920132497
        },
        {
            "onset": 188.5,
            "x": 12893.309915566288
        },
        {
            "onset": 188.75,
            "x": 12912.458911000078
        },
        {
            "onset": 189.0,
            "x": 12930.31720628166
        },
        {
            "onset": 189.25,
            "x": 12951.368789234477
        },
        {
            "onset": 189.5,
            "x": 12968.615197149238
        },
        {
            "onset": 189.75,
            "x": 12989.666780102056
        },
        {
            "onset": 190.0,
            "x": 13007.121901324124
        },
        {
            "onset": 190.25,
            "x": 13030.468450030365
        },
        {
            "onset": 190.5,
            "x": 13049.617445464157
        },
        {
            "onset": 190.75,
            "x": 13073.104416544824
        },
        {
            "onset": 191.0,
            "x": 13092.388628329985
        },
        {
            "onset": 191.25,
            "x": 13111.537623763774
        },
        {
            "onset": 191.5,
            "x": 13130.686619197566
        },
        {
            "onset": 191.75,
            "x": 13149.835614631358
        },
        {
            "onset": 192.0,
            "x": 13183.855734403778
        },
        {
            "onset": 192.5,
            "x": 13210.45315703189
        },
        {
            "onset": 193.0,
            "x": 13239.015417305862
        },
        {
            "onset": 195.0,
            "x": 13287.745105281509
        },
        {
            "onset": 196.0,
            "x": 13333.962658662633
        },
        {
            "onset": 196.25,
            "x": 13357.26239991073
        },
        {
            "onset": 196.5,
            "x": 13376.411395344521
        },
        {
            "onset": 196.75,
            "x": 13395.56039077831
        },
        {
            "onset": 197.0,
            "x": 13414.709386212102
        },
        {
            "onset": 197.25,
            "x": 13433.858381645892
        },
        {
            "onset": 197.5,
            "x": 13453.00737707968
        },
        {
            "onset": 197.75,
            "x": 13472.156372513471
        },
        {
            "onset": 198.0,
            "x": 13491.305367947263
        },
        {
            "onset": 198.5,
            "x": 13519.586783472376
        },
        {
            "onset": 199.0,
            "x": 13547.86819899749
        },
        {
            "onset": 199.5,
            "x": 13576.149614522605
        },
        {
            "onset": 200.0,
            "x": 13612.246758466974
        },
        {
            "onset": 200.25,
            "x": 13633.298341419788
        },
        {
            "onset": 200.5,
            "x": 13652.447336853576
        },
        {
            "onset": 200.75,
            "x": 13671.596332287369
        },
        {
            "onset": 201.0,
            "x": 13692.647915240183
        },
        {
            "onset": 201.25,
            "x": 13709.89432315495
        },
        {
            "onset": 201.5,
            "x": 13729.043318588738
        },
        {
            "onset": 201.75,
            "x": 13748.192314022526
        },
        {
            "onset": 202.0,
            "x": 13769.243896975344
        },
        {
            "onset": 202.25,
            "x": 13786.490304890107
        },
        {
            "onset": 202.5,
            "x": 13805.639300323895
        },
        {
            "onset": 202.75,
            "x": 13824.788295757688
        },
        {
            "onset": 203.0,
            "x": 13845.839878710502
        },
        {
            "onset": 203.25,
            "x": 13863.086286625268
        },
        {
            "onset": 203.5,
            "x": 13882.235282059057
        },
        {
            "onset": 203.75,
            "x": 13901.384277492845
        },
        {
            "onset": 204.0,
            "x": 13929.598117095638
        },
        {
            "onset": 204.5,
            "x": 13956.195539723745
        },
        {
            "onset": 205.0,
            "x": 13984.47695524886
        },
        {
            "onset": 205.5,
            "x": 14012.758370773972
        },
        {
            "onset": 206.0,
            "x": 14041.039786299087
        },
        {
            "onset": 206.5,
            "x": 14069.321201824201
        },
        {
            "onset": 207.0,
            "x": 14097.602617349317
        },
        {
            "onset": 207.5,
            "x": 14125.88403287443
        },
        {
            "onset": 208.0,
            "x": 14161.097425713497
        },
        {
            "onset": 208.25,
            "x": 14182.9510837551
        },
        {
            "onset": 208.5,
            "x": 14202.10007918889
        },
        {
            "onset": 208.75,
            "x": 14221.249074622678
        },
        {
            "onset": 209.0,
            "x": 14241.498582486707
        },
        {
            "onset": 209.25,
            "x": 14259.54706549026
        },
        {
            "onset": 209.5,
            "x": 14278.69606092405
        },
        {
            "onset": 209.75,
            "x": 14297.84505635784
        },
        {
            "onset": 210.0,
            "x": 14318.094564221867
        },
        {
            "onset": 210.25,
            "x": 14336.143047225421
        },
        {
            "onset": 210.5,
            "x": 14355.292042659208
        },
        {
            "onset": 211.0,
            "x": 14394.690545957026
        },
        {
            "onset": 211.25,
            "x": 14412.739028960581
        },
        {
            "onset": 211.5,
            "x": 14431.888024394371
        },
        {
            "onset": 211.75,
            "x": 14451.037019828158
        },
        {
            "onset": 212.0,
            "x": 14479.25085943095
        },
        {
            "onset": 212.25,
            "x": 14496.715861967732
        },
        {
            "onset": 212.5,
            "x": 14513.962269882499
        },
        {
            "onset": 212.75,
            "x": 14533.111265316285
        },
        {
            "onset": 213.0,
            "x": 14550.35767323105
        },
        {
            "onset": 213.25,
            "x": 14569.50666866484
        },
        {
            "onset": 213.5,
            "x": 14586.753076579607
        },
        {
            "onset": 213.75,
            "x": 14605.902072013394
        },
        {
            "onset": 214.0,
            "x": 14623.148479928159
        },
        {
            "onset": 214.25,
            "x": 14642.297475361947
        },
        {
            "onset": 214.5,
            "x": 14659.543883276712
        },
        {
            "onset": 214.75,
            "x": 14678.692878710503
        },
        {
            "onset": 215.0,
            "x": 14695.939286625267
        },
        {
            "onset": 215.25,
            "x": 14715.088282059056
        },
        {
            "onset": 215.5,
            "x": 14738.575253139727
        },
        {
            "onset": 215.75,
            "x": 14757.724248573517
        },
        {
            "onset": 216.0,
            "x": 14784.70633206994
        },
        {
            "onset": 216.25,
            "x": 14808.19330315061
        },
        {
            "onset": 216.5,
            "x": 14827.342298584399
        },
        {
            "onset": 216.75,
            "x": 14846.49129401819
        },
        {
            "onset": 217.0,
            "x": 14865.64028945198
        },
        {
            "onset": 217.25,
            "x": 14884.78928488577
        },
        {
            "onset": 217.5,
            "x": 14902.035692800533
        },
        {
            "onset": 217.75,
            "x": 14921.184688234323
        },
        {
            "onset": 218.0,
            "x": 14938.431096149088
        },
        {
            "onset": 218.25,
            "x": 14959.482679101904
        },
        {
            "onset": 218.5,
            "x": 14976.729087016667
        },
        {
            "onset": 218.75,
            "x": 15000.216058097338
        },
        {
            "onset": 219.0,
            "x": 15019.365053531124
        },
        {
            "onset": 219.25,
            "x": 15038.514048964918
        },
        {
            "onset": 219.5,
            "x": 15055.760456879681
        },
        {
            "onset": 219.75,
            "x": 15074.909452313472
        },
        {
            "onset": 220.0,
            "x": 15109.332319241097
        },
        {
            "onset": 220.5,
            "x": 15135.356927308067
        },
        {
            "onset": 221.0,
            "x": 15163.638342833181
        },
        {
            "onset": 221.5,
            "x": 15191.919758358295
        },
        {
            "onset": 222.0,
            "x": 15220.20117388341
        },
        {
            "onset": 222.5,
            "x": 15248.482589408526
        },
        {
            "onset": 223.0,
            "x": 15276.76400493364
        },
        {
            "onset": 223.5,
            "x": 15305.045420458751
        },
        {
            "onset": 224.0,
            "x": 15351.168859249772
        },
        {
            "onset": 224.25,
            "x": 15372.220442202588
        },
        {
            "onset": 224.5,
            "x": 15395.402968838813
        },
        {
            "onset": 224.75,
            "x": 15420.259726829683
        },
        {
            "onset": 225.0,
            "x": 15438.479797859616
        },
        {
            "onset": 225.25,
            "x": 15460.46030521629
        },
        {
            "onset": 225.5,
            "x": 15477.70671313105
        },
        {
            "onset": 225.75,
            "x": 15498.758296083866
        },
        {
            "onset": 226.0,
            "x": 15516.004703998633
        },
        {
            "onset": 226.25,
            "x": 15537.056286951445
        },
        {
            "onset": 226.5,
            "x": 15554.302694866214
        },
        {
            "onset": 226.75,
            "x": 15575.354277819026
        },
        {
            "onset": 227.0,
            "x": 15591.671761329932
        },
        {
            "onset": 227.25,
            "x": 15611.749681167583
        },
        {
            "onset": 227.5,
            "x": 15628.996089082344
        },
        {
            "onset": 227.75,
            "x": 15650.04767203516
        },
        {
            "onset": 228.0,
            "x": 15677.029755531585
        },
        {
            "onset": 228.25,
            "x": 15698.0813384844
        },
        {
            "onset": 228.5,
            "x": 15715.327746399162
        },
        {
            "onset": 228.75,
            "x": 15736.379329351981
        },
        {
            "onset": 229.0,
            "x": 15755.063862583844
        },
        {
            "onset": 229.25,
            "x": 15776.579907738582
        },
        {
            "onset": 229.5,
            "x": 15793.826315653354
        },
        {
            "onset": 229.75,
            "x": 15814.877898606166
        },
        {
            "onset": 230.0,
            "x": 15834.026894039956
        },
        {
            "onset": 230.25,
            "x": 15855.07847699277
        },
        {
            "onset": 230.5,
            "x": 15872.324884907535
        },
        {
            "onset": 230.75,
            "x": 15893.376467860351
        },
        {
            "onset": 231.0,
            "x": 15909.926182472222
        },
        {
            "onset": 231.25,
            "x": 15931.674458727932
        },
        {
            "onset": 231.5,
            "x": 15948.920866642695
        },
        {
            "onset": 231.75,
            "x": 15969.021155835997
        },
        {
            "onset": 232.0,
            "x": 15997.59657103493
        },
        {
            "onset": 232.25,
            "x": 16018.64815398775
        },
        {
            "onset": 232.5,
            "x": 16035.894561902513
        },
        {
            "onset": 232.75,
            "x": 16056.946144855327
        },
        {
            "onset": 233.0,
            "x": 16075.63067808719
        },
        {
            "onset": 233.25,
            "x": 16097.146723241935
        },
        {
            "onset": 233.5,
            "x": 16114.3931311567
        },
        {
            "onset": 233.75,
            "x": 16135.444714109515
        },
        {
            "onset": 234.0,
            "x": 16151.740511021844
        },
        {
            "onset": 234.25,
            "x": 16172.792093974656
        },
        {
            "onset": 234.5,
            "x": 16190.038501889421
        },
        {
            "onset": 234.75,
            "x": 16211.090084842239
        },
        {
            "onset": 235.0,
            "x": 16229.637523959436
        },
        {
            "onset": 235.25,
            "x": 16251.290663228843
        },
        {
            "onset": 235.5,
            "x": 16276.147421219712
        },
        {
            "onset": 235.75,
            "x": 16297.199004172526
        },
        {
            "onset": 236.0,
            "x": 16324.62141600122
        },
        {
            "onset": 236.5,
            "x": 16353.76051036956
        },
        {
            "onset": 237.0,
            "x": 16382.041925894679
        },
        {
            "onset": 237.5,
            "x": 16410.323341419786
        },
        {
            "onset": 237.75,
            "x": 16429.472336853578
        },
        {
            "onset": 238.0,
            "x": 16454.42270976073
        },
        {
            "onset": 238.5,
            "x": 16484.513097888586
        },
        {
            "onset": 239.0,
            "x": 16512.794513413697
        },
        {
            "onset": 239.5,
            "x": 16541.075928938815
        },
        {
            "onset": 239.75,
            "x": 16560.2249243726
        },
        {
            "onset": 240.0,
            "x": 16596.595680334045
        },
        {
            "onset": 240.5,
            "x": 16623.94148449437
        },
        {
            "onset": 241.0,
            "x": 16652.222900019482
        },
        {
            "onset": 241.25,
            "x": 16671.371895453274
        },
        {
            "onset": 241.5,
            "x": 16690.520890887063
        },
        {
            "onset": 241.75,
            "x": 16709.66988632085
        },
        {
            "onset": 242.0,
            "x": 16730.8618916481
        },
        {
            "onset": 243.0,
            "x": 16768.135304890107
        },
        {
            "onset": 243.25,
            "x": 16787.2843003239
        },
        {
            "onset": 243.5,
            "x": 16806.433295757684
        },
        {
            "onset": 243.75,
            "x": 16825.582291191477
        },
        {
            "onset": 244.0,
            "x": 16860.39717304987
        },
        {
            "onset": 244.5,
            "x": 16887.742977210197
        },
        {
            "onset": 245.0,
            "x": 16916.024392735315
        },
        {
            "onset": 245.25,
            "x": 16935.173388169103
        },
        {
            "onset": 245.5,
            "x": 16954.322383602892
        },
        {
            "onset": 245.75,
            "x": 16973.47137903668
        },
        {
            "onset": 246.0,
            "x": 16994.663384363925
        },
        {
            "onset": 247.0,
            "x": 17031.936797605933
        },
        {
            "onset": 247.25,
            "x": 17051.08579303973
        },
        {
            "onset": 247.5,
            "x": 17070.234788473517
        },
        {
            "onset": 247.75,
            "x": 17089.38378390727
        },
        {
            "onset": 248.0,
            "x": 17123.45028423341
        },
        {
            "onset": 248.5,
            "x": 17151.54446992595
        },
        {
            "onset": 249.0,
            "x": 17179.825885451068
        },
        {
            "onset": 249.25,
            "x": 17198.974880884856
        },
        {
            "onset": 249.5,
            "x": 17218.123876318645
        },
        {
            "onset": 249.75,
            "x": 17237.27287175244
        },
        {
            "onset": 250.0,
            "x": 17258.790771295815
        },
        {
            "onset": 251.0,
            "x": 17294.344903715908
        },
        {
            "onset": 252.0,
            "x": 17339.829403969587
        },
        {
            "onset": 254.0,
            "x": 17386.961742883865
        },
        {
            "onset": 256.0,
            "x": 17443.26204432618
        },
        {
            "onset": 257.0,
            "x": 17479.69926219962
        },
        {
            "onset": 258.0,
            "x": 17518.34523632443
        },
        {
            "onset": 259.0,
            "x": 17540.89544180388
        },
        {
            "onset": 260.0,
            "x": 17588.242472245285
        },
        {
            "onset": 261.0,
            "x": 17624.543791010274
        },
        {
            "onset": 262.0,
            "x": 17663.189765135085
        },
        {
            "onset": 263.0,
            "x": 17685.739970614533
        },
        {
            "onset": 264.0,
            "x": 17732.9505077965
        },
        {
            "onset": 265.0,
            "x": 17769.31943473714
        },
        {
            "onset": 266.0,
            "x": 17808.916702621464
        },
        {
            "onset": 267.0,
            "x": 17831.466908100916
        },
        {
            "onset": 268.0,
            "x": 17879.71690277367
        },
        {
            "onset": 268.5,
            "x": 17909.807290901525
        },
        {
            "onset": 269.0,
            "x": 17938.08870642664
        },
        {
            "onset": 269.5,
            "x": 17966.37012195175
        },
        {
            "onset": 269.75,
            "x": 17985.519117385542
        },
        {
            "onset": 270.0,
            "x": 18006.570700338358
        },
        {
            "onset": 270.5,
            "x": 18036.7547033825
        },
        {
            "onset": 271.0,
            "x": 18065.03611890761
        },
        {
            "onset": 271.5,
            "x": 18093.317534432725
        },
        {
            "onset": 271.75,
            "x": 18112.46652986652
        },
        {
            "onset": 272.0,
            "x": 18139.687811014614
        },
        {
            "onset": 272.5,
            "x": 18166.92431786393
        },
        {
            "onset": 273.0,
            "x": 18195.20573338904
        },
        {
            "onset": 273.5,
            "x": 18223.48714891416
        },
        {
            "onset": 273.75,
            "x": 18242.636144347944
        },
        {
            "onset": 274.0,
            "x": 18263.687727300763
        },
        {
            "onset": 274.5,
            "x": 18293.8717303449
        },
        {
            "onset": 275.0,
            "x": 18322.153145870016
        },
        {
            "onset": 275.5,
            "x": 18350.43456139513
        },
        {
            "onset": 275.75,
            "x": 18369.58355682892
        },
        {
            "onset": 276.0,
            "x": 18397.553219509235
        },
        {
            "onset": 276.5,
            "x": 18424.04134482633
        },
        {
            "onset": 277.0,
            "x": 18452.322760351446
        },
        {
            "onset": 277.5,
            "x": 18480.604175876564
        },
        {
            "onset": 277.75,
            "x": 18499.75317131035
        },
        {
            "onset": 278.0,
            "x": 18520.80475426317
        },
        {
            "onset": 278.5,
            "x": 18550.988757307307
        },
        {
            "onset": 279.0,
            "x": 18579.270172832425
        },
        {
            "onset": 279.5,
            "x": 18607.551588357535
        },
        {
            "onset": 279.75,
            "x": 18626.700583791328
        },
        {
            "onset": 280.0,
            "x": 18655.678869723062
        },
        {
            "onset": 280.5,
            "x": 18683.86667033189
        },
        {
            "onset": 281.0,
            "x": 18712.148085857003
        },
        {
            "onset": 281.5,
            "x": 18740.429501382117
        },
        {
            "onset": 282.0,
            "x": 18768.710916907232
        },
        {
            "onset": 282.5,
            "x": 18796.992332432346
        },
        {
            "onset": 283.0,
            "x": 18825.273747957457
        },
        {
            "onset": 283.5,
            "x": 18853.55516348257
        },
        {
            "onset": 284.0,
            "x": 18892.791982428662
        },
        {
            "onset": 284.5,
            "x": 18919.389405056776
        },
        {
            "onset": 285.0,
            "x": 18947.951665330747
        },
        {
            "onset": 287.0,
            "x": 18992.876178268343
        },
        {
            "onset": 287.25,
            "x": 19013.92776122116
        },
        {
            "onset": 288.0,
            "x": 19055.53962315426
        },
        {
            "onset": 288.25,
            "x": 19074.501388755478
        },
        {
            "onset": 288.5,
            "x": 19093.65038418927
        },
        {
            "onset": 288.75,
            "x": 19112.799379623062
        },
        {
            "onset": 289.0,
            "x": 19131.94837505685
        },
        {
            "onset": 289.25,
            "x": 19151.09737049064
        },
        {
            "onset": 289.5,
            "x": 19170.24636592443
        },
        {
            "onset": 289.75,
            "x": 19189.39536135822
        },
        {
            "onset": 290.0,
            "x": 19208.54435679201
        },
        {
            "onset": 290.5,
            "x": 19236.825772317123
        },
        {
            "onset": 291.0,
            "x": 19265.107187842237
        },
        {
            "onset": 291.75,
            "x": 19296.828139142617
        },
        {
            "onset": 292.0,
            "x": 19325.783477694444
        },
        {
            "onset": 292.5,
            "x": 19354.06489321956
        },
        {
            "onset": 292.75,
            "x": 19373.21388865335
        },
        {
            "onset": 293.0,
            "x": 19391.56080899835
        },
        {
            "onset": 293.5,
            "x": 19418.23807434589
        },
        {
            "onset": 294.0,
            "x": 19446.752648166286
        },
        {
            "onset": 294.5,
            "x": 19474.800905396118
        },
        {
            "onset": 294.75,
            "x": 19493.949900829914
        },
        {
            "onset": 295.0,
            "x": 19513.0988962637
        },
        {
            "onset": 295.5,
            "x": 19541.380311788813
        },
        {
            "onset": 295.75,
            "x": 19560.529307222605
        },
        {
            "onset": 296.0,
            "x": 19590.17140180837
        },
        {
            "onset": 296.5,
            "x": 19620.261789936227
        },
        {
            "onset": 297.0,
            "x": 19648.543205461337
        },
        {
            "onset": 297.5,
            "x": 19676.824620986456
        },
        {
            "onset": 298.0,
            "x": 19705.106036511566
        },
        {
            "onset": 298.5,
            "x": 19733.38745203668
        },
        {
            "onset": 299.0,
            "x": 19761.6688675618
        },
        {
            "onset": 299.25,
            "x": 19782.72045051461
        },
        {
            "onset": 299.5,
            "x": 19801.869445948403
        },
        {
            "onset": 299.75,
            "x": 19821.01844138219
        },
        {
            "onset": 300.0,
            "x": 19848.217963452207
        },
        {
            "onset": 300.5,
            "x": 19876.499378977325
        },
        {
            "onset": 301.0,
            "x": 19904.921216876864
        },
        {
            "onset": 301.25,
            "x": 19929.637552493303
        },
        {
            "onset": 301.5,
            "x": 19948.786547927095
        },
        {
            "onset": 301.75,
            "x": 19967.935543360887
        },
        {
            "onset": 302.0,
            "x": 19987.25257586796
        },
        {
            "onset": 302.25,
            "x": 20008.894330053652
        },
        {
            "onset": 302.5,
            "x": 20028.043325487444
        },
        {
            "onset": 302.75,
            "x": 20047.192320921236
        },
        {
            "onset": 303.0,
            "x": 20066.341316355025
        },
        {
            "onset": 303.25,
            "x": 20087.39289930784
        },
        {
            "onset": 303.5,
            "x": 20106.54189474163
        },
        {
            "onset": 303.75,
            "x": 20125.690890175418
        },
        {
            "onset": 304.0,
            "x": 20152.770957581357
        },
        {
            "onset": 304.5,
            "x": 20181.052373106468
        },
        {
            "onset": 305.0,
            "x": 20209.474211006014
        },
        {
            "onset": 305.25,
            "x": 20234.190546622453
        },
        {
            "onset": 305.5,
            "x": 20253.33954205624
        },
        {
            "onset": 305.75,
            "x": 20272.48853749003
        },
        {
            "onset": 306.0,
            "x": 20291.77795529825
        },
        {
            "onset": 306.25,
            "x": 20313.419709483944
        },
        {
            "onset": 306.5,
            "x": 20332.568704917732
        },
        {
            "onset": 306.75,
            "x": 20351.717700351524
        },
        {
            "onset": 307.0,
            "x": 20370.866695785313
        },
        {
            "onset": 307.25,
            "x": 20391.91827873813
        },
        {
            "onset": 307.5,
            "x": 20411.06727417192
        },
        {
            "onset": 307.75,
            "x": 20430.21626960571
        },
        {
            "onset": 308.0,
            "x": 20457.296337011645
        },
        {
            "onset": 308.25,
            "x": 20476.44533244547
        },
        {
            "onset": 308.5,
            "x": 20501.302090436304
        },
        {
            "onset": 308.75,
            "x": 20520.451085870092
        },
        {
            "onset": 309.0,
            "x": 20539.74050367831
        },
        {
            "onset": 309.25,
            "x": 20564.456839294748
        },
        {
            "onset": 309.5,
            "x": 20583.60583472854
        },
        {
            "onset": 309.75,
            "x": 20602.75483016233
        },
        {
            "onset": 310.0,
            "x": 20622.071862669403
        },
        {
            "onset": 310.25,
            "x": 20643.7136168551
        },
        {
            "onset": 310.5,
            "x": 20662.86261228889
        },
        {
            "onset": 310.75,
            "x": 20682.01160772268
        },
        {
            "onset": 311.0,
            "x": 20701.16060315647
        },
        {
            "onset": 311.25,
            "x": 20722.212186109286
        },
        {
            "onset": 311.5,
            "x": 20741.361181543078
        },
        {
            "onset": 311.75,
            "x": 20760.510176976866
        },
        {
            "onset": 312.0,
            "x": 20792.944745361303
        },
        {
            "onset": 312.25,
            "x": 20812.093740795095
        },
        {
            "onset": 312.5,
            "x": 20831.24273622892
        },
        {
            "onset": 312.75,
            "x": 20850.391731662636
        },
        {
            "onset": 313.0,
            "x": 20869.540727096424
        },
        {
            "onset": 313.25,
            "x": 20888.689722530213
        },
        {
            "onset": 313.5,
            "x": 20907.838717964005
        },
        {
            "onset": 313.75,
            "x": 20926.987713397793
        },
        {
            "onset": 314.0,
            "x": 20946.136708831586
        },
        {
            "onset": 314.25,
            "x": 20965.28570426537
        },
        {
            "onset": 314.5,
            "x": 20984.434699699163
        },
        {
            "onset": 314.75,
            "x": 21003.583695132955
        },
        {
            "onset": 315.0,
            "x": 21022.73269056674
        },
        {
            "onset": 315.25,
            "x": 21041.881686000535
        },
        {
            "onset": 315.5,
            "x": 21061.030681434324
        },
        {
            "onset": 315.75,
            "x": 21080.179676868112
        },
        {
            "onset": 316.0,
            "x": 21112.952478564155
        },
        {
            "onset": 316.25,
            "x": 21132.00785908166
        },
        {
            "onset": 316.5,
            "x": 21151.15685451545
        },
        {
            "onset": 316.75,
            "x": 21170.30584994924
        },
        {
            "onset": 317.0,
            "x": 21189.454845383032
        },
        {
            "onset": 317.25,
            "x": 21208.60384081682
        },
        {
            "onset": 317.5,
            "x": 21232.09081189749
        },
        {
            "onset": 317.75,
            "x": 21251.23980733128
        },
        {
            "onset": 318.0,
            "x": 21270.388802765072
        },
        {
            "onset": 318.25,
            "x": 21289.53779819886
        },
        {
            "onset": 318.5,
            "x": 21308.686793632653
        },
        {
            "onset": 318.75,
            "x": 21327.835789066437
        },
        {
            "onset": 319.0,
            "x": 21346.98478450023
        },
        {
            "onset": 319.25,
            "x": 21366.13377993402
        },
        {
            "onset": 319.5,
            "x": 21385.282775367807
        },
        {
            "onset": 319.75,
            "x": 21404.4317708016
        },
        {
            "onset": 320.0,
            "x": 21435.59310967961
        },
        {
            "onset": 320.25,
            "x": 21454.742105113397
        },
        {
            "onset": 320.5,
            "x": 21473.891100547185
        },
        {
            "onset": 320.75,
            "x": 21493.040095980974
        },
        {
            "onset": 321.0,
            "x": 21512.189091414763
        },
        {
            "onset": 321.25,
            "x": 21531.338086848555
        },
        {
            "onset": 321.5,
            "x": 21550.487082282343
        },
        {
            "onset": 321.75,
            "x": 21569.636077716135
        },
        {
            "onset": 322.0,
            "x": 21588.78507314993
        },
        {
            "onset": 322.25,
            "x": 21607.934068583712
        },
        {
            "onset": 322.5,
            "x": 21627.083064017508
        },
        {
            "onset": 322.75,
            "x": 21646.232059451297
        },
        {
            "onset": 323.0,
            "x": 21665.38105488508
        },
        {
            "onset": 323.25,
            "x": 21688.868025965752
        },
        {
            "onset": 323.5,
            "x": 21708.017021399544
        },
        {
            "onset": 323.75,
            "x": 21727.166016833333
        },
        {
            "onset": 324.0,
            "x": 21755.108499691887
        },
        {
            "onset": 324.25,
            "x": 21771.51291115814
        },
        {
            "onset": 324.5,
            "x": 21790.661906591937
        },
        {
            "onset": 324.75,
            "x": 21809.810902025725
        },
        {
            "onset": 325.0,
            "x": 21828.35834114292
        },
        {
            "onset": 325.25,
            "x": 21848.108892893306
        },
        {
            "onset": 325.5,
            "x": 21869.160475846118
        },
        {
            "onset": 325.75,
            "x": 21886.406883760883
        },
        {
            "onset": 326.0,
            "x": 21907.458466713702
        },
        {
            "onset": 326.25,
            "x": 21924.704874628464
        },
        {
            "onset": 326.5,
            "x": 21943.853870062252
        },
        {
            "onset": 326.75,
            "x": 21963.00286549604
        },
        {
            "onset": 327.0,
            "x": 21984.05444844886
        },
        {
            "onset": 327.25,
            "x": 22001.300856363625
        },
        {
            "onset": 327.5,
            "x": 22020.449851797413
        },
        {
            "onset": 327.75,
            "x": 22039.598847231206
        },
        {
            "onset": 328.0,
            "x": 22068.373169185266
        },
        {
            "onset": 328.25,
            "x": 22084.777580651524
        },
        {
            "onset": 328.5,
            "x": 22103.926576085312
        },
        {
            "onset": 328.75,
            "x": 22123.075571519104
        },
        {
            "onset": 329.0,
            "x": 22142.224566952893
        },
        {
            "onset": 329.25,
            "x": 22161.37356238668
        },
        {
            "onset": 329.5,
            "x": 22182.4251453395
        },
        {
            "onset": 329.75,
            "x": 22199.671553254262
        },
        {
            "onset": 330.0,
            "x": 22220.72313620708
        },
        {
            "onset": 330.25,
            "x": 22237.969544121843
        },
        {
            "onset": 330.5,
            "x": 22257.118539555635
        },
        {
            "onset": 330.75,
            "x": 22276.26753498942
        },
        {
            "onset": 331.0,
            "x": 22297.31911794224
        },
        {
            "onset": 331.25,
            "x": 22314.565525857004
        },
        {
            "onset": 331.5,
            "x": 22333.714521290793
        },
        {
            "onset": 331.75,
            "x": 22352.86351672458
        },
        {
            "onset": 332.0,
            "x": 22385.27395123932
        },
        {
            "onset": 332.25,
            "x": 22402.891206439726
        },
        {
            "onset": 332.5,
            "x": 22422.04020187352
        },
        {
            "onset": 332.75,
            "x": 22441.189197307307
        },
        {
            "onset": 333.0,
            "x": 22460.338192741096
        },
        {
            "onset": 333.25,
            "x": 22479.487188174888
        },
        {
            "onset": 333.5,
            "x": 22500.538771127704
        },
        {
            "onset": 333.75,
            "x": 22517.785179042465
        },
        {
            "onset": 334.0,
            "x": 22538.836761995284
        },
        {
            "onset": 334.25,
            "x": 22556.08316991005
        },
        {
            "onset": 334.5,
            "x": 22575.232165343834
        },
        {
            "onset": 334.75,
            "x": 22594.381160777626
        },
        {
            "onset": 335.0,
            "x": 22615.432743730442
        },
        {
            "onset": 335.25,
            "x": 22632.679151645207
        },
        {
            "onset": 335.5,
            "x": 22651.828147079
        },
        {
            "onset": 335.75,
            "x": 22670.977142512787
        },
        {
            "onset": 336.0,
            "x": 22706.284413658672
        },
        {
            "onset": 336.25,
            "x": 22721.004832227933
        },
        {
            "onset": 336.5,
            "x": 22740.15382766172
        },
        {
            "onset": 336.75,
            "x": 22759.30282309551
        },
        {
            "onset": 337.0,
            "x": 22778.4518185293
        },
        {
            "onset": 337.25,
            "x": 22801.93878960997
        },
        {
            "onset": 337.5,
            "x": 22821.08778504376
        },
        {
            "onset": 337.75,
            "x": 22840.236780477553
        },
        {
            "onset": 338.0,
            "x": 22859.38577591134
        },
        {
            "onset": 338.25,
            "x": 22876.632183826103
        },
        {
            "onset": 338.5,
            "x": 22895.781179259895
        },
        {
            "onset": 338.75,
            "x": 22914.930174693684
        },
        {
            "onset": 339.0,
            "x": 22934.079170127472
        },
        {
            "onset": 339.25,
            "x": 22957.566141208146
        },
        {
            "onset": 339.5,
            "x": 22976.71513664193
        },
        {
            "onset": 339.75,
            "x": 22995.864132075723
        },
        {
            "onset": 340.0,
            "x": 23031.560279064157
        },
        {
            "onset": 340.5,
            "x": 23059.841694589268
        },
        {
            "onset": 340.75,
            "x": 23078.990690023064
        },
        {
            "onset": 341.0,
            "x": 23098.139685456852
        },
        {
            "onset": 341.25,
            "x": 23117.28868089064
        },
        {
            "onset": 341.5,
            "x": 23136.437676324433
        },
        {
            "onset": 341.75,
            "x": 23155.586671758218
        },
        {
            "onset": 342.0,
            "x": 23174.876089566438
        },
        {
            "onset": 343.0,
            "x": 23209.43152063843
        },
        {
            "onset": 344.0,
            "x": 23257.22247562862
        },
        {
            "onset": 344.25,
            "x": 23278.27405858143
        },
        {
            "onset": 344.5,
            "x": 23295.520466496197
        },
        {
            "onset": 344.75,
            "x": 23316.572049449016
        },
        {
            "onset": 345.0,
            "x": 23335.7210448828
        },
        {
            "onset": 345.25,
            "x": 23356.772627835617
        },
        {
            "onset": 345.5,
            "x": 23374.01903575038
        },
        {
            "onset": 345.75,
            "x": 23395.070618703197
        },
        {
            "onset": 346.0,
            "x": 23410.414439098935
        },
        {
            "onset": 346.25,
            "x": 23431.46602205175
        },
        {
            "onset": 346.5,
            "x": 23448.71242996652
        },
        {
            "onset": 346.75,
            "x": 23469.76401291933
        },
        {
            "onset": 347.0,
            "x": 23488.91300835312
        },
        {
            "onset": 347.25,
            "x": 23509.96459130594
        },
        {
            "onset": 347.5,
            "x": 23527.2109992207
        },
        {
            "onset": 347.75,
            "x": 23548.262582173516
        },
        {
            "onset": 348.0,
            "x": 23575.24466566994
        },
        {
            "onset": 348.25,
            "x": 23596.29624862276
        },
        {
            "onset": 348.5,
            "x": 23613.54265653752
        },
        {
            "onset": 348.75,
            "x": 23634.594239490336
        },
        {
            "onset": 349.0,
            "x": 23651.8406474051
        },
        {
            "onset": 349.25,
            "x": 23672.892230357913
        },
        {
            "onset": 349.5,
            "x": 23690.13863827268
        },
        {
            "onset": 349.75,
            "x": 23711.190221225497
        },
        {
            "onset": 350.0,
            "x": 23730.432831575567
        },
        {
            "onset": 350.25,
            "x": 23751.390799612098
        },
        {
            "onset": 350.5,
            "x": 23768.637207526866
        },
        {
            "onset": 350.75,
            "x": 23789.688790479682
        },
        {
            "onset": 351.0,
            "x": 23806.238505091555
        },
        {
            "onset": 351.25,
            "x": 23827.986781347263
        },
        {
            "onset": 351.5,
            "x": 23845.233189262024
        },
        {
            "onset": 351.75,
            "x": 23866.28477221484
        },
        {
            "onset": 352.0,
            "x": 23893.241015963467
        },
        {
            "onset": 352.25,
            "x": 23914.198984
        },
        {
            "onset": 352.5,
            "x": 23931.445391914767
        },
        {
            "onset": 352.75,
            "x": 23952.49697486758
        },
        {
            "onset": 353.0,
            "x": 23969.046689479455
        },
        {
            "onset": 353.25,
            "x": 23990.79496573516
        },
        {
            "onset": 353.5,
            "x": 24008.041373649925
        },
        {
            "onset": 353.75,
            "x": 24029.09295660274
        },
        {
            "onset": 354.0,
            "x": 24046.339364517506
        },
        {
            "onset": 354.25,
            "x": 24067.39094747032
        },
        {
            "onset": 354.5,
            "x": 24084.637355385086
        },
        {
            "onset": 354.75,
            "x": 24105.688938337902
        },
        {
            "onset": 355.0,
            "x": 24122.470884050737
        },
        {
            "onset": 355.25,
            "x": 24143.98692920548
        },
        {
            "onset": 355.5,
            "x": 24161.233337120248
        },
        {
            "onset": 355.75,
            "x": 24182.284920073063
        },
        {
            "onset": 356.0,
            "x": 24209.023725248102
        },
        {
            "onset": 356.5,
            "x": 24239.114113375952
        },
        {
            "onset": 357.0,
            "x": 24267.395528901066
        },
        {
            "onset": 357.5,
            "x": 24295.67694442618
        },
        {
            "onset": 357.75,
            "x": 24314.82593985997
        },
        {
            "onset": 358.0,
            "x": 24334.000942034323
        },
        {
            "onset": 358.5,
            "x": 24364.091330162177
        },
        {
            "onset": 359.0,
            "x": 24392.37274568729
        },
        {
            "onset": 359.5,
            "x": 24420.65416121241
        },
        {
            "onset": 359.75,
            "x": 24439.803156646198
        },
        {
            "onset": 360.0,
            "x": 24472.350949644675
        },
        {
            "onset": 360.5,
            "x": 24500.445135337213
        },
        {
            "onset": 361.0,
            "x": 24528.72655086233
        },
        {
            "onset": 361.25,
            "x": 24547.87554629612
        },
        {
            "onset": 361.5,
            "x": 24567.02454172991
        },
        {
            "onset": 361.75,
            "x": 24586.1735371637
        },
        {
            "onset": 362.0,
            "x": 24607.41234994908
        },
        {
            "onset": 363.0,
            "x": 24644.638955732953
        },
        {
            "onset": 363.25,
            "x": 24663.787951166745
        },
        {
            "onset": 363.5,
            "x": 24682.936946600534
        },
        {
            "onset": 363.75,
            "x": 24702.085942034326
        },
        {
            "onset": 364.0,
            "x": 24732.8332425344
        },
        {
            "onset": 364.5,
            "x": 24760.927428226943
        },
        {
            "onset": 365.0,
            "x": 24789.208843752058
        },
        {
            "onset": 365.25,
            "x": 24808.357839185846
        },
        {
            "onset": 365.5,
            "x": 24827.506834619635
        },
        {
            "onset": 365.75,
            "x": 24846.655830053423
        },
        {
            "onset": 366.0,
            "x": 24867.89464283881
        },
        {
            "onset": 367.0,
            "x": 24905.12124862268
        },
        {
            "onset": 367.25,
            "x": 24924.27024405647
        },
        {
            "onset": 367.5,
            "x": 24943.419239490257
        },
        {
            "onset": 367.75,
            "x": 24962.56823492405
        },
        {
            "onset": 368.0,
            "x": 24993.315535424204
        },
        {
            "onset": 368.5,
            "x": 25021.40972111674
        },
        {
            "onset": 369.0,
            "x": 25049.691136641857
        },
        {
            "onset": 369.25,
            "x": 25068.840132075646
        },
        {
            "onset": 369.5,
            "x": 25087.98912750944
        },
        {
            "onset": 369.75,
            "x": 25107.13812294323
        },
        {
            "onset": 370.0,
            "x": 25128.656022486608
        },
        {
            "onset": 371.0,
            "x": 25164.210154906697
        },
        {
            "onset": 372.0,
            "x": 25209.69465516038
        },
        {
            "onset": 374.0,
            "x": 25256.826994074585
        },
        {
            "onset": 376.0,
            "x": 25313.588510781155
        },
        {
            "onset": 377.0,
            "x": 25349.277347122374
        },
        {
            "onset": 378.0,
            "x": 25387.91359195822
        },
        {
            "onset": 379.0,
            "x": 25425.32742757466
        },
        {
            "onset": 380.0,
            "x": 25471.192862886684
        },
        {
            "onset": 381.0,
            "x": 25508.232805265452
        },
        {
            "onset": 381.25,
            "x": 25527.38180069924
        },
        {
            "onset": 381.5,
            "x": 25546.53079613303
        },
        {
            "onset": 381.75,
            "x": 25563.777204047798
        },
        {
            "onset": 382.0,
            "x": 25581.02361196256
        },
        {
            "onset": 382.25,
            "x": 25600.172607396347
        },
        {
            "onset": 382.5,
            "x": 25619.32160283014
        },
        {
            "onset": 382.75,
            "x": 25636.568010744904
        },
        {
            "onset": 383.0,
            "x": 25652.885494255806
        },
        {
            "onset": 383.25,
            "x": 25672.963414093458
        },
        {
            "onset": 383.5,
            "x": 25692.11240952725
        },
        {
            "onset": 383.75,
            "x": 25709.35881744201
        },
        {
            "onset": 384.0,
            "x": 25736.185857378186
        },
        {
            "onset": 384.5,
            "x": 25762.76950780944
        },
        {
            "onset": 385.0,
            "x": 25791.050923334547
        },
        {
            "onset": 385.5,
            "x": 25819.332338859665
        },
        {
            "onset": 385.75,
            "x": 25838.481334293454
        },
        {
            "onset": 386.0,
            "x": 25857.656336467884
        },
        {
            "onset": 386.5,
            "x": 25887.74672459574
        },
        {
            "onset": 387.0,
            "x": 25916.028140120852
        },
        {
            "onset": 387.5,
            "x": 25944.309555645967
        },
        {
            "onset": 387.75,
            "x": 25963.458551079762
        },
        {
            "onset": 388.0,
            "x": 25992.436837011493
        },
        {
            "onset": 388.5,
            "x": 26022.527225139347
        },
        {
            "onset": 389.0,
            "x": 26050.80864066446
        },
        {
            "onset": 389.5,
            "x": 26079.090056189572
        },
        {
            "onset": 389.75,
            "x": 26098.239051623365
        },
        {
            "onset": 390.0,
            "x": 26119.29063457618
        },
        {
            "onset": 390.5,
            "x": 26149.47463762032
        },
        {
            "onset": 391.0,
            "x": 26177.756053145433
        },
        {
            "onset": 391.5,
            "x": 26206.037468670547
        },
        {
            "onset": 391.75,
            "x": 26225.186464104343
        },
        {
            "onset": 392.0,
            "x": 26252.767707200608
        },
        {
            "onset": 392.5,
            "x": 26280.004214049965
        },
        {
            "onset": 393.0,
            "x": 26308.28562957508
        },
        {
            "onset": 393.5,
            "x": 26336.567045100157
        },
        {
            "onset": 393.75,
            "x": 26355.716040534022
        },
        {
            "onset": 394.0,
            "x": 26376.767623486798
        },
        {
            "onset": 394.5,
            "x": 26403.146451492885
        },
        {
            "onset": 394.75,
            "x": 26420.39285940761
        },
        {
            "onset": 395.0,
            "x": 26439.40663849003
        },
        {
            "onset": 395.25,
            "x": 26458.55563392382
        },
        {
            "onset": 395.5,
            "x": 26477.704629357613
        },
        {
            "onset": 395.75,
            "x": 26496.8536247914
        },
        {
            "onset": 396.0,
            "x": 26526.48133407603
        },
        {
            "onset": 398.0,
            "x": 26573.308434532646
        },
        {
            "onset": 398.25,
            "x": 26594.360017485466
        },
        {
            "onset": 398.5,
            "x": 26612.580088515406
        },
        {
            "onset": 398.75,
            "x": 26634.560595872073
        },
        {
            "onset": 399.0,
            "x": 26653.709591305862
        },
        {
            "onset": 399.25,
            "x": 26674.761174258674
        },
        {
            "onset": 399.5,
            "x": 26693.91016969247
        },
        {
            "onset": 399.75,
            "x": 26714.961752645282
        },
        {
            "onset": 400.0,
            "x": 26741.13100030784
        },
        {
            "onset": 402.0,
            "x": 26787.95810076446
        },
        {
            "onset": 402.5,
            "x": 26814.846129683796
        }
    ],
    "staffs": [
        {
            "bottom": 102.9,
            "notespos": [],
            "top": 0
        },
        {
            "bottom": 210.9,
            "notespos": [],
            "top": 108
        },
        {
            "bottom": 318.9,
            "notespos": [],
            "top": 216
        },
        {
            "bottom": 426.9,
            "notespos": [],
            "top": 324
        }
    ]
}